…
tdf_winners
```

    ## # A tibble: 106 x 10
    ##    edition start_date winner_name winner_team distance time_overall height
    ##      <dbl> <date>     <chr>       <chr>          <dbl>        <dbl>  <dbl>
    ##  1       1 1903-07-01 Maurice Ga~ La Françai~     2428         94.6   1.62
    ##  2       2 1904-07-02 Henri Corn~ Conte           2428         96.1  NA   
    ##  3       3 1905-07-09 Louis Trou~ Peugeot–Wo~     2994         NA    NA   
    ##  4       4 1906-07-04 René Potti~ Peugeot–Wo~     4637         NA    NA   
    ##  5       5 1907-07-08 Lucien Pet~ Peugeot–Wo~     4488         NA    NA   
    ##  6       6 1908-07-13 Lucien Pet~ Peugeot–Wo~     4497         NA    NA   
    ##  7       7 1909-07-05 François F~ Alcyon–Dun~     4498         NA     1.78
    ##  8       8 1910-07-01 Octave Lap~ Alcyon–Dun~     4734         NA    NA   
    ##  9       9 1911-07-02 Gustave Ga~ Alcyon–Dun~     5343         NA    NA   
    ## 10      10 1912-06-30 Odile Defr~ Alcyon–Dun~     5289         NA    NA   
    ## # ... with 96 more rows, and 3 more variables: weight <dbl>, age <dbl>,
    ## #   nationality <chr>
…
Los ciclistas mas ganadores?

``` r
tdf_winners %>% 
        group_by(winner_name) %>% 
        summarise(n_win = n()) %>% 
        arrange(desc(n_win))
```

    ## # A tibble: 63 x 2
    ##    winner_name      n_win
    ##    <chr>            <int>
    ##  1 Lance Armstrong      7
    ##  2 Bernard Hinault      5
    ##  3 Eddy Merckx          5
    ##  4 Jacques Anquetil     5
    ##  5 Miguel Induráin      5
    ##  6 Chris Froome         4
    ##  7 Greg LeMond          3
    ##  8 Louison Bobet        3
    ##  9 Philippe Thys        3
    ## 10 Alberto Contador     2
    ## # ... with 53 more rows

Y el equipo mas ganador?

``` r
tdf_winners %>% 
        group_by(winner_team) %>% 
        summarise(n_win = n()) %>% 
        arrange(desc(n_win))
```

    ## # A tibble: 48 x 2
    ##    winner_team         n_win
    ##    <chr>               <int>
    ##  1 France                 12
    ##  2 Alcyon–Dunlop           8
    ##  3 Peugeot–Wolber          7
    ##  4 Team Sky                6
    ##  5 U.S. Postal Service     6
    ##  6 Banesto                 5
    ##  7 Italy                   5
    ##  8 Automoto–Hutchinson     3
    ##  9 Belgium                 3
    ## 10 La Sportive             3
    ## # ... with 38 more rows
…
